Assignment 1
…
For up to 6 points, use the leadership data found in the data folder. This is a .dta file (from Stata) and can be read in using the appropriate function from the haven package.

lead <- haven::read_dta("leadership")

Using verbs from the dplyr package (specifically, group_by and summarize), find the effect mean for each leaderID. Which leader(s) had the highest effect mean and which leader(s) had the lowest effect mean.

From the results, we could see leaderID 1644, 2507, and 8467 have the highest effect mean. LeaderID 1589 has the lowest effect mean.

# Compute and summarize the effect means for each leaderID.
lead %>%
  group_by(leaderID) %>%
  summarise(mean = round(mean(effect), 2)) 

## # A tibble: 4,886 x 2
##    leaderID  mean
##       <dbl> <dbl>
##  1        2  8.33
##  2        3  8.7 
##  3        6  7.62
##  4        7  8.72
##  5        9  7.18
##  6       10  8.12
##  7       11  8.96
##  8       12  8.5 
##  9       14  8.25
## 10       15  8.92
## # ... with 4,876 more rows

# Find the leader(s) with the highest effect mean. 
lead %>%
  group_by(leaderID) %>%
  summarise(mean = round(mean(effect), 2)) %>%
  arrange(desc(mean))

## # A tibble: 4,886 x 2
##    leaderID  mean
##       <dbl> <dbl>
##  1     1644 10   
##  2     2507 10   
##  3     8467 10   
##  4     1638  9.97
##  5    11880  9.95
##  6     6606  9.88
##  7    11029  9.88
##  8     6312  9.83
##  9     8926  9.83
## 10    10891  9.83
## # ... with 4,876 more rows

# Find the leader(s) with the lowest effect mean. 
lead %>%
  group_by(leaderID) %>%
  summarise(mean = round(mean(effect), 2)) %>%
  arrange(mean)

## # A tibble: 4,886 x 2
##    leaderID  mean
##       <dbl> <dbl>
##  1     1589  2.17
##  2     5100  2.75
##  3    12191  3.67
##  4     9545  3.75
##  5    12261  4.3 
##  6     2176  4.31
##  7     3270  4.5 
##  8     4084  4.5 
##  9     6093  4.5 
## 10    12890  4.5 
## # ... with 4,876 more rows
…
